Project
…
Immediately, we noticed that there was an observation that made the minutes variable plots look skewed. We examined it below:

ten %>%
  arrange(desc(minutes)) %>%
  select(minutes)

## # A tibble: 1,000 x 1
##    minutes
##      <int>
##  1    1146
##  2     205
##  3     193
##  4     189
##  5     188
##  6     186
##  7     186
##  8     180
##  9     179
## 10     177
## # ... with 990 more rows
…
